{
  "schemaVersion": 1,
  "id": "pisotkarov",
  "version": "${version}",
  "name": "Pisot Karov",
  "description": "Pisot Karov",
  "authors": [
    "shmookoff"
  ],
  "contact": {
    "homepage": "",
    "sources": ""
  },
  "license": "CC0-1.0",
  "icon": "assets/pisotkarov/icon.png",
  "environment": "*",
  "entrypoints": {
    "main": [
      "shmookoff.pisot.karov.PisotKarov"
    ]
  },
  "mixins": [
    "pisotkarov.mixins.json"
  ],
  "depends": {
    "fabricloader": ">=0.14.6",
    "fabric": "*",
    "minecraft": "~1.18.2",
    "java": ">=17"
  },
  "suggests": {
    "another-mod": "*"
  }
}