{
    "type": "minecraft:crafting_shapeless",
    "id": "pisotkarov:pyat_to_desit",
    "ingredients": [
        {
            "item": "pisotkarov:pyat_karov"
        },
        {
            "item": "pisotkarov:pyat_karov"
        }
    ],
    "result": {
        "item": "pisotkarov:desit_karov",
        "count": 1
    }
}